<svg xmlns="http://www.w3.org/2000/svg" width="49.212" height="60.093" viewBox="0 0 49.212 60.093">
    <defs>
        <style>
            .cls-1{fill:#d4e1f4}.cls-1,.cls-2,.cls-3{stroke:#707070}.cls-2{fill:#1ae5be}.cls-3{fill:#0635c9}
        </style>
    </defs>
    <g id="bill_2_" transform="translate(-51.594 -5.632)">
        <path id="Path_230" d="M164.375 257.328q-.7-.019-1.375-.1v28.679l3.546-2.527v-26.15a15 15 0 0 1-2.171.098z" class="cls-1" transform="translate(-97.798 -221.415)"/>
        <path id="Path_231" d="M279.224 34.49l.037-.017 2.521-1.8-1.773-1.273-3.83 2.741a15.512 15.512 0 0 1 1.5 2.245z" class="cls-1" transform="translate(-197.6 -22.28)"/>
        <path id="Path_232" d="M118.745 46.242a3.485 3.485 0 0 0-3.487 3.443v.429h-2.71a.726.726 0 0 0-.706.665l-1.1 12.3a.729.729 0 0 0 .052.341l1.018 2.447a.71.71 0 0 0 .655.437h12.58a.708.708 0 0 0 .665-.461l.907-2.445a.709.709 0 0 0 .042-.3l-.993-12.313a.726.726 0 0 0-.707-.671h-2.725v-.429a3.485 3.485 0 0 0-3.491-3.443zm-2.068 3.443a2.069 2.069 0 0 1 4.137 0v.429h-4.137zm-3.741 15.2l-.428-1.064h12.422l-.381 1.064zM124.3 51.532l.878 10.874h-12.96l.976-10.874h2.062v2.507a.709.709 0 0 0 1.418 0v-2.507h4.137v2.507a.709.709 0 0 0 1.418 0v-2.507z" class="cls-2" transform="translate(-51.711 -35.368)"/>
        <path id="Path_233" d="M152.919 137.709a.709.709 0 0 0-.709-.709h-6.5a.709.709 0 0 0-.709.709v2.246a.709.709 0 0 0 .709.709h6.5a.709.709 0 0 0 .709-.709zm-1.418 1.537h-5.082v-.827h5.081z" class="cls-2" transform="translate(-81.925 -115.399)"/>
        <g id="Group_13" transform="translate(64.493 8.41)">
            <path id="Path_234" d="M157.4 82.109a.743.743 0 0 0 .332.078.721.721 0 0 0 .417-.132l3.884-2.778 3.883 2.778a.709.709 0 0 0 .826 0l3.881-2.778 3.881 2.778a.709.709 0 0 0 .826 0l3.881-2.778 3.881 2.778a.709.709 0 0 0 .825 0l3.88-2.778 3.88 2.778a.717.717 0 0 0 1.133-.576v-55.37a.716.716 0 0 0-1.13-.577l-3.88 2.778-3.883-2.778a.709.709 0 0 0-.826 0l-3.881 2.778-3.881-2.778a.709.709 0 0 0-.825 0l-4.294 3.073.826 1.153 3.881-2.778 3.881 2.778a.709.709 0 0 0 .825 0l3.881-2.778 3.882 2.778a.718.718 0 0 0 .831 0l3.178-2.27V80.1l-3.177-2.269a.714.714 0 0 0-.828 0l-3.882 2.778-3.882-2.778a.709.709 0 0 0-.826 0l-3.881 2.778-3.881-2.778a.709.709 0 0 0-.825 0l-3.881 2.778-3.882-2.779a.735.735 0 0 0-.842 0l-3.189 2.27V52.064H157v29.415a.725.725 0 0 0 .4.63z" class="cls-3" transform="translate(-157 -25.399)"/>
            <path id="Path_235" d="M207.032 431.418h7.439a.709.709 0 1 0 0-1.418h-7.439a.709.709 0 1 0 0 1.418z" class="cls-3" transform="translate(-200.493 -382.179)"/>
            <path id="Path_236" d="M207.032 406.418h7.439a.709.709 0 0 0 0-1.418h-7.439a.709.709 0 0 0 0 1.418z" class="cls-3" transform="translate(-200.493 -360.133)"/>
            <path id="Path_237" d="M207.032 272.418h.275a.709.709 0 0 0 0-1.418h-.275a.709.709 0 1 0 0 1.418z" class="cls-3" transform="translate(-200.493 -241.971)"/>
            <path id="Path_238" d="M232.549 272.418h2.076a.709.709 0 0 0 0-1.418h-2.076a.709.709 0 1 0 0 1.418z" class="cls-3" transform="translate(-222.994 -241.971)"/>
            <path id="Path_239" d="M272.968 271.709a.709.709 0 0 0 .709.709h14.878a.709.709 0 0 0 0-1.418h-14.878a.709.709 0 0 0-.709.709z" class="cls-3" transform="translate(-259.261 -241.971)"/>
            <path id="Path_240" d="M207.032 321.418h.275a.709.709 0 0 0 0-1.418h-.275a.709.709 0 0 0 0 1.418z" class="cls-3" transform="translate(-200.493 -285.18)"/>
            <path id="Path_241" d="M232.549 321.418h2.076a.709.709 0 0 0 0-1.418h-2.076a.709.709 0 0 0 0 1.418z" class="cls-3" transform="translate(-222.994 -285.18)"/>
            <path id="Path_242" d="M273.677 321.418h14.878a.709.709 0 0 0 0-1.418h-14.878a.709.709 0 0 0 0 1.418z" class="cls-3" transform="translate(-259.261 -285.18)"/>
            <path id="Path_243" d="M290.549 211a.709.709 0 0 0 0 1.418h2.076a.709.709 0 0 0 0-1.418z" class="cls-3" transform="translate(-274.139 -189.063)"/>
            <path id="Path_244" d="M330.968 211.709a.709.709 0 0 0 .709.709h8.023a.709.709 0 0 0 0-1.418h-8.025a.709.709 0 0 0-.707.709z" class="cls-3" transform="translate(-310.406 -189.063)"/>
            <path id="Path_245" d="M371.731 97.176a1.037 1.037 0 0 1-1.036-1.036.711.711 0 0 0-1.423 0 2.535 2.535 0 0 0 1.741 2.349v.355a.709.709 0 0 0 1.418 0v-.355a2.4 2.4 0 0 0 1.75-2.349 2.455 2.455 0 0 0-2.452-2.454 1.036 1.036 0 1 1-.011-2.072h.025a1.037 1.037 0 0 1 1.024 1.035.707.707 0 0 0 1.414 0 2.4 2.4 0 0 0-1.75-2.349v-.435a.709.709 0 0 0-1.418 0v.435a2.535 2.535 0 0 0-1.741 2.349 2.459 2.459 0 0 0 2.457 2.455 1.036 1.036 0 1 1 0 2.072z" class="cls-3" transform="translate(-344.183 -81.62)"/>
            <path id="Path_246" d="M318.453 97.176a1.037 1.037 0 0 1-1.036-1.036.709.709 0 0 0-.709-.709.689.689 0 0 0-.684.709 2.415 2.415 0 0 0 1.77 2.349v.355a.709.709 0 1 0 1.418 0v-.355a2.516 2.516 0 0 0 1.721-2.349 2.468 2.468 0 0 0-2.467-2.454 1.036 1.036 0 1 1-.022-2.072h.023a1.037 1.037 0 0 1 1.023 1.035.709.709 0 0 0 .709.709.731.731 0 0 0 .734-.709 2.517 2.517 0 0 0-1.721-2.349v-.435a.709.709 0 1 0-1.418 0v.435a2.415 2.415 0 0 0-1.77 2.349 2.447 2.447 0 0 0 2.442 2.455 1.032 1.032 0 0 1 1.03 1.036 1.043 1.043 0 0 1-1.043 1.036z" class="cls-3" transform="translate(-297.227 -81.62)"/>
            <path id="Path_247" d="M313.12 378.709a.709.709 0 0 0-.709-.709h-11.7a.709.709 0 0 0-.709.709v6.146a.709.709 0 0 0 .709.709h11.7a.709.709 0 0 0 .709-.709zm-1.418 5.437h-10.284v-4.728H311.7z" class="cls-3" transform="translate(-283.098 -336.325)"/>
            <path id="Path_248" d="M207.032 380.418h7.439a.709.709 0 0 0 0-1.418h-7.439a.709.709 0 0 0 0 1.418z" class="cls-3" transform="translate(-200.493 -337.207)"/>
            <path id="Path_249" d="M183.709 341.255a.709.709 0 0 0 .709-.709v-.746a.709.709 0 1 0-1.418 0v.745a.709.709 0 0 0 .709.71z" class="cls-3" transform="translate(-179.927 -302.015)"/>
            <path id="Path_250" d="M183.709 373.493a.709.709 0 0 0 .709-.709V365.1a.709.709 0 1 0-1.418 0v7.683a.709.709 0 0 0 .709.71z" class="cls-3" transform="translate(-179.927 -324.325)"/>
        </g>
        <path id="Path_251" d="M81.875 20.672A15.222 15.222 0 0 0 67.487 6.141 14.893 14.893 0 1 0 70.518 35.5a.709.709 0 0 0 .449-1.035.709.709 0 0 0-.79-.342 13.5 13.5 0 1 1 4.138-1.791.709.709 0 1 0 .784 1.182 14.89 14.89 0 0 0 6.775-12.837z" class="cls-2"/>
    </g>
</svg>
